indivdual1
…
## tibble [4,014 x 4] (S3: tbl_df/tbl/data.frame)
##  $ name    : Factor w/ 42 levels "Akers, Landen",..: 7 7 7 7 7 7 7 7 7 7 ...
##  $ opponent: Factor w/ 13 levels "Akron","Baylor",..: 4 4 4 4 4 4 4 4 4 7 ...
##  $ Stats   : chr [1:4014] "Tackles_Solo" "Tackles_ASST" "Tackles_TFL" "Tackles_Sack" ...
##  $ value   : int [1:4014] 3 3 0 0 0 0 0 0 0 6 ...

##Compare some data The data will only have shared opponents to see how much they really improved against common data points

twoDef <- inner_join(defClean2, defClean , by= c("name" , "Stats", "opponent"))
twoDef <- twoDef %>% group_by(Stats) %>% rename(twentyEighteen = value.x , twentyNineteen = value.y) %>% filter(Stats== 'Tackles_Solo')
twoDef <- twoDef %>% pivot_longer(twentyEighteen:twentyNineteen , names_to = "year")
twoDef 

## # A tibble: 382 x 5
## # Groups:   Stats [1]
##    name           opponent       Stats        year           value
##    <fct>          <fct>          <chr>        <chr>          <int>
##  1 Eisworth, Greg Iowa           Tackles_Solo twentyEighteen     3
##  2 Eisworth, Greg Iowa           Tackles_Solo twentyNineteen     7
##  3 Eisworth, Greg Oklahoma       Tackles_Solo twentyEighteen     6
##  4 Eisworth, Greg Oklahoma       Tackles_Solo twentyNineteen     2
##  5 Eisworth, Greg TCU            Tackles_Solo twentyEighteen     6
##  6 Eisworth, Greg TCU            Tackles_Solo twentyNineteen     3
##  7 Eisworth, Greg Oklahoma State Tackles_Solo twentyEighteen     3
##  8 Eisworth, Greg Oklahoma State Tackles_Solo twentyNineteen     0
##  9 Eisworth, Greg Texas Tech     Tackles_Solo twentyEighteen     3
## 10 Eisworth, Greg Texas Tech     Tackles_Solo twentyNineteen     3
## # ... with 372 more rows
…
head(twoDef, n =50)

## # A tibble: 50 x 5
## # Groups:   Stats [1]
##    name           opponent       Stats        year           value
##    <fct>          <fct>          <chr>        <chr>          <int>
##  1 Eisworth, Greg Iowa           Tackles_Solo twentyEighteen     3
##  2 Eisworth, Greg Iowa           Tackles_Solo twentyNineteen     7
##  3 Eisworth, Greg Oklahoma       Tackles_Solo twentyEighteen     6
##  4 Eisworth, Greg Oklahoma       Tackles_Solo twentyNineteen     2
##  5 Eisworth, Greg TCU            Tackles_Solo twentyEighteen     6
##  6 Eisworth, Greg TCU            Tackles_Solo twentyNineteen     3
##  7 Eisworth, Greg Oklahoma State Tackles_Solo twentyEighteen     3
##  8 Eisworth, Greg Oklahoma State Tackles_Solo twentyNineteen     0
##  9 Eisworth, Greg Texas Tech     Tackles_Solo twentyEighteen     3
## 10 Eisworth, Greg Texas Tech     Tackles_Solo twentyNineteen     3
## # ... with 40 more rows
